{
    "2023.6": {
        "default": true,
        "deprecated": false,
        "langs": {
            "fr-FR": {
                "url": "",
                "format": "",
                "replacements": ""
            }
        }
    }
}